"noise","PID","NASA","CDT","CSCT","Pupil","RM","SDT","LS","PTA","Rspan","LDT","LM","Simon","TRT","Ext","HSPS"
"louder",101,12.6375,28.9563900973952,83.9472635836452,0.654003581430415,1.04880884817015,35.222393747112,0.430555555555556,2.81341071676004,0.242323239056341,6.50515448585702,0.601137982391267,3.4606571786545,74.62,3,4.88888888888889
"quieter",101,12.175,27.1798579990968,76.8316715061887,0.600942294973254,0.901387818865997,35.3236911703001,0.472222222222222,2.81341071676004,0.242323239056341,6.50515448585702,0.601137982391267,3.4606571786545,74.62,3,4.88888888888889
"louder",102,8.47361111111111,27.94368376513,97.2065403659135,0.522763952828244,1.09544511501033,40.2130042932099,0.513888888888889,3.14988295338125,0.639958850088452,6.40254312189036,0.698488655422236,3.60364430719526,64.46,3.83333333333333,3.62962962962963
"quieter",102,7.33333333333333,27.1827744317325,97.2065403659135,0.560409375891436,1,40.4060639013503,0.486111111111111,3.14988295338125,0.639958850088452,6.40254312189036,0.698488655422236,3.60364430719526,64.46,3.83333333333333,3.62962962962963
"louder",103,9.22222222222222,22.7966046854611,114.868620918244,0.581662288478452,0.957427107756338,29.960050920564,0.597222222222222,2.9531726591352,0.509346618537342,6.2233569494137,0.849244327711117,7.00914265115497,59.85,2.08333333333333,4.2962962962963
"quieter",103,6.84027777777778,22.6327360418651,92.2402918616822,0.428084004568927,0.968245836551854,29.1305837409913,0.611111111111111,2.9531726591352,0.509346618537342,6.2233569494137,0.849244327711117,7.00914265115497,59.85,2.08333333333333,4.2962962962963
"louder",104,5.57083333333333,25.5296472086462,67.3054869676735,NA,0.886405260427918,39.0045042443992,0.361111111111111,3.18497427319252,0.292893218813452,6.46856657889089,0.662900068768378,4.77876307825093,73.69,4.58333333333333,3.55555555555556
"quieter",104,5.79583333333333,25.6164849476908,76.8316715061887,NA,1,41.0741489782286,0.388888888888889,3.18497427319252,0.292893218813452,6.46856657889089,0.662900068768378,4.77876307825093,73.69,4.58333333333333,3.55555555555556
"louder",105,14.9548611111111,25.9081974262501,91.3305576801851,0.560035827146366,0.901387818865997,39.7694010912648,NA,3.31418600467253,0.279917700176904,6.37390622168765,0.630725527062002,5.20560730799871,63.54,3.66666666666667,4.66666666666667
"quieter",105,12.7013888888889,26.1523767277591,82.6991111216835,0.597687386819006,0.925820099772551,37.8261257528931,NA,3.31418600467253,0.279917700176904,6.37390622168765,0.630725527062002,5.20560730799871,63.54,3.66666666666667,4.66666666666667
"louder",106,15.5798611111111,24.5139711717358,NA,0.433730778690886,0.790569415042095,36.0627231362248,NA,3.18497427319252,0.455668946048183,6.21490019059058,0.75,5.86377604065585,61.69,3.16666666666667,4.66666666666667
"quieter",106,12.7222222222222,24.9903429624187,NA,0.48452758124167,0.968245836551854,34.8915780987651,NA,3.18497427319252,0.455668946048183,6.21490019059058,0.75,5.86377604065585,61.69,3.16666666666667,4.66666666666667
"louder",107,12.4548611111111,30.9513827677875,92.2402918616822,0.679179083304917,1,30.6241734582339,0.652777777777778,3.11351530921037,0.528595479208969,6.39093232569024,0.795875854768068,4.03363626340805,58,4.33333333333333,4.03703703703704
"quieter",107,11.6111111111111,31.3880439391432,114.868620918244,0.764034725823046,0.968245836551854,30.3284489351964,0.666666666666667,3.11351530921037,0.528595479208969,6.39093232569024,0.795875854768068,4.03363626340805,58,4.33333333333333,4.03703703703704
"louder",108,7.2125,31.8479460352888,114.868620918244,0.960218376194555,1.2747548783982,33.6283610463946,0.680555555555556,3.11351530921037,0.807549910270125,6.4075792679891,0.711324865405188,1.81591653170368,64.46,2.83333333333333,3.55555555555556
"quieter",108,6.09722222222222,30.6060355447207,97.2065403659135,0.982410435980432,1,34.3874977280988,0.736111111111111,3.11351530921037,0.807549910270125,6.4075792679891,0.711324865405188,1.81591653170368,64.46,2.83333333333333,3.55555555555556
"louder",109,15.2256944444444,NA,70.3733002685445,NA,0.957427107756338,33.3816316757185,0.347222222222222,3.07577498122753,0.172240865236037,6.40569322604251,0.677251387816048,6.55958884055163,66.31,1.75,5.18518518518519
"quieter",109,12.9027777777778,NA,73.5397725296097,NA,0.82915619758885,32.5748555195754,0.375,3.07577498122753,0.172240865236037,6.40569322604251,0.677251387816048,6.55958884055163,66.31,1.75,5.18518518518519
"louder",110,14.4236111111111,28.0346040526747,73.5397725296097,0.622364951702783,0.707106781186548,34.138989267922,0.444444444444444,2.99573227355399,0.376390435537676,6.53033875775485,0.618118692087014,2.90489079558739,65.38,2.91666666666667,5.59259259259259
"quieter",110,13.1944444444444,27.2556073472622,70.3733002685445,0.631333100402045,0.866025403784439,33.6659005099055,0.430555555555556,2.99573227355399,0.376390435537676,6.53033875775485,0.618118692087014,2.90489079558739,65.38,2.91666666666667,5.59259259259259
"louder",111,13.1111111111111,31.0314976460023,87.8932174506877,0.597991299233796,0.957427107756338,NA,0.569444444444444,2.9531726591352,0.361715261495775,6.48922163181047,0.711324865405188,5.15546522862228,69.08,2.41666666666667,6.59259259259259
"quieter",111,12.1430555555556,29.5022663693865,92.2402918616822,0.525006759216526,0.901387818865997,NA,0.583333333333333,2.9531726591352,0.361715261495775,6.48922163181047,0.711324865405188,5.15546522862228,69.08,2.41666666666667,6.59259259259259
"louder",112,14.6597222222222,23.7717708086428,114.868620918244,NA,0.790569415042095,36.9159015030621,0.611111111111111,3.14988295338125,0.695709690274907,6.5067544180816,1,5.97793709578463,70,3.66666666666667,5.48148148148148
"quieter",112,11.9583333333333,24.5513273931915,97.2065403659135,NA,0.968245836551854,37.2480424541568,0.638888888888889,3.14988295338125,0.695709690274907,6.5067544180816,1,5.97793709578463,70,3.66666666666667,5.48148148148148
"louder",113,12.9583333333333,27.5804517490435,83.9472635836452,0.616756252206444,1.22474487139159,38.6153640597032,NA,3.11351530921037,0.61509982054025,6.28058887797398,0.711324865405188,5.03823097510973,69.08,1.91666666666667,4.81481481481481
"quieter",113,11.5381944444444,26.9971508468237,92.2402918616822,0.634756791962371,1.03509833901353,36.8813307533708,NA,3.11351530921037,0.61509982054025,6.28058887797398,0.711324865405188,5.03823097510973,69.08,1.91666666666667,4.81481481481481
"louder",114,8.07222222222222,27.9005461629423,83.9472635836452,0.689101333289024,0.82915619758885,33.5583490460671,0.680555555555556,3.18497427319252,0.54866453307578,6.61741676033719,0.795875854768068,3.88357071717721,63.54,3.5,4.25925925925926
"quieter",114,4.99861111111111,26.6872402321557,103.308864040621,0.716301453680716,0.968245836551854,32.6303055778714,0.652777777777778,3.18497427319252,0.54866453307578,6.61741676033719,0.795875854768068,3.88357071717721,63.54,3.5,4.25925925925926
"louder",115,12.6416666666667,32.9827460721744,NA,0.624888940795743,0.866025403784439,35.3944163093892,NA,3.03655426807425,0.361715261495775,6.37554472410571,0.618118692087014,3.30744891327171,70,3.16666666666667,5.66666666666667
"quieter",115,11.2083333333333,30.1935199777808,NA,0.731433026596949,0.901387818865997,36.0239118117706,NA,3.03655426807425,0.361715261495775,6.37554472410571,0.618118692087014,3.30744891327171,70,3.16666666666667,5.66666666666667
"louder",116,13.1666666666667,27.2787805470088,87.8932174506877,0.519519098588808,0.755928946018454,33.429506650467,0.375,3.03655426807425,0.455668946048183,6.34915720216969,0.521286446121831,4.0781139317609,70.92,2.91666666666667,4.66666666666667
"quieter",116,11.2013888888889,25.8182106273847,87.8932174506877,0.524384365710434,0.963624111659432,31.5888217339075,0.458333333333333,3.03655426807425,0.455668946048183,6.34915720216969,0.521286446121831,4.0781139317609,70.92,2.91666666666667,4.66666666666667
"louder",117,11.1145833333333,24.9643746166412,76.8316715061887,0.901705759527091,0.707106781186548,36.4701215715256,0.5,3.14988295338125,0.306111333511289,6.38026376986377,0.618118692087014,6.94532571870359,65.38,3.16666666666667,4.03703703703704
"quieter",117,10.7326388888889,24.3370934510894,76.8316715061887,0.818196912789406,0.935414346693485,32.9604139671954,0.458333333333333,3.14988295338125,0.306111333511289,6.38026376986377,0.618118692087014,6.94532571870359,65.38,3.16666666666667,4.03703703703704
"louder",118,13.0659722222222,33.3090628941445,NA,0.6325314516227,0.901387818865997,36.657016273904,0.444444444444444,3.07577498122753,0.376390435537676,6.30118031089284,0.677251387816048,3.28355856072331,63.54,4.33333333333333,3.51851851851852
"quieter",118,11.4201388888889,33.0143812162004,NA,0.636928601461215,0.886405260427918,35.0168213545687,0.486111111111111,3.07577498122753,0.376390435537676,6.30118031089284,0.677251387816048,3.28355856072331,63.54,4.33333333333333,3.51851851851852
"louder",119,7.70555555555556,26.2616433804794,114.868620918244,0.739509058738959,0.925820099772551,31.8606742568729,0.527777777777778,2.81341071676004,0.639958850088452,6.19858241113243,0.795875854768068,5.44701013375313,67.23,2.83333333333333,3
"quieter",119,5.81944444444444,26.7105888283197,103.308864040621,0.722606774803639,1,30.5467275514508,0.527777777777778,2.81341071676004,0.639958850088452,6.19858241113243,0.795875854768068,5.44701013375313,67.23,2.83333333333333,3
"louder",120,10.9201388888889,26.3411020752091,76.8316715061887,0.390419639351937,0.886405260427918,35.9395751397327,NA,3.31418600467253,0.528595479208969,6.28517921101069,0.677251387816048,5.55225932185009,70.92,3.08333333333333,4.55555555555556
"quieter",120,8.72222222222222,26.0692681441776,83.9472635836452,0.389647338604914,0.968245836551854,35.0062851499556,NA,3.31418600467253,0.528595479208969,6.28517921101069,0.677251387816048,5.55225932185009,70.92,3.08333333333333,4.55555555555556
"louder",121,13.6770833333333,29.5229561235254,97.2065403659135,0.463167453008882,0.963624111659432,38.7918077411467,0.486111111111111,2.81341071676004,0.230199641080499,6.41271506046706,0.566987298107781,4.26429959630511,70,3.66666666666667,4.92592592592593
"quieter",121,13.0104166666667,28.9782805000701,87.8932174506877,0.456572993701266,0.901387818865997,39.0870822651167,0.5,2.81341071676004,0.230199641080499,6.41271506046706,0.566987298107781,4.26429959630511,70,3.66666666666667,4.92592592592593
"louder",122,14.4618055555556,30.8743207894607,83.9472635836452,0.661760573935105,0.836660026534076,41.1528975360151,NA,3.2188758248682,0.376390435537676,6.59255925659698,0.591751709536137,5.79323761117892,71.85,4.33333333333333,4.62962962962963
"quieter",122,14.4444444444444,31.1393245631079,83.9472635836452,0.568643016457446,0.866025403784439,38.6051953901429,NA,3.2188758248682,0.376390435537676,6.59255925659698,0.591751709536137,5.79323761117892,71.85,4.33333333333333,4.62962962962963
"louder",123,13.0763888888889,22.9462163799143,97.2065403659135,0.75016079823995,0.82915619758885,35.8300833350255,0.569444444444444,2.99573227355399,0.727834473024092,6.33437065501505,0.677251387816048,5.91184316846399,62.62,2.25,5.22222222222222
"quieter",123,12.025,23.2548147222675,83.9472635836452,0.560514339170536,1,35.0644095988057,0.625,2.99573227355399,0.727834473024092,6.33437065501505,0.677251387816048,5.91184316846399,62.62,2.25,5.22222222222222
"louder",124,10.8055555555556,31.2549530958416,92.2402918616822,0.622685995923517,0.845154254728517,35.5485583392632,0.555555555555556,3.18497427319252,0.361715261495775,6.3576457098232,0.543564535412362,4.82839548244533,64.46,2.58333333333333,4.2962962962963
"quieter",124,8.27083333333333,31.3214699967709,97.2065403659135,0.503033785276676,0.866025403784439,34.2568727897532,0.666666666666667,3.18497427319252,0.361715261495775,6.3576457098232,0.543564535412362,4.82839548244533,64.46,2.58333333333333,4.2962962962963
"louder",125,9.69097222222222,27.1778182129637,58.501025074454,0.560017768918915,0.901387818865997,33.3796345096827,0.416666666666667,2.99573227355399,0.25464400750007,6.20614889058644,0.618118692087014,6.93339132977206,72.77,2.25,5.14814814814815
"quieter",125,9.75347222222222,26.6050609526211,64.3152353978021,0.474798233530087,0.901387818865997,32.3449478616663,0.486111111111111,2.99573227355399,0.25464400750007,6.20614889058644,0.618118692087014,6.93339132977206,72.77,2.25,5.14814814814815
"louder",126,16.5888888888889,30.3269878239859,92.2402918616822,0.729859606377137,0.948683298050514,33.5641177449967,0.430555555555556,3.07577498122753,0.361715261495775,6.39644342591472,0.566987298107781,6.06200131389468,68.15,2.08333333333333,5.22222222222222
"quieter",126,14.3373015873016,29.8703079012863,97.2065403659135,0.631273466952492,0.901387818865997,34.6174583274485,0.416666666666667,3.07577498122753,0.361715261495775,6.39644342591472,0.566987298107781,6.06200131389468,68.15,2.08333333333333,5.22222222222222
"louder",127,13.1541666666667,27.1540941219958,70.3733002685445,0.641391438373846,0.845154254728517,38.3554368360435,0.513888888888889,2.9531726591352,0.376390435537676,6.29380942659422,0.543564535412362,4.99619955257939,58.92,3.66666666666667,3.74074074074074
"quieter",127,10.9375,26.4514229820964,80.2844146978996,0.625677507809738,0.935414346693485,38.2540137138234,0.472222222222222,2.9531726591352,0.376390435537676,6.29380942659422,0.543564535412362,4.99619955257939,58.92,3.66666666666667,3.74074074074074
"louder",128,12.9270833333333,26.4826318033922,NA,0.813913119667947,0.935414346693485,34.9899599499242,0.541666666666667,3.11351530921037,0.54866453307578,6.38221620659178,0.795875854768068,4.26638335341766,64.46,3.16666666666667,4.22222222222222
"quieter",128,9.25,26.5175756467634,NA,0.84459918958767,0.935414346693485,33.6177036693466,0.638888888888889,3.11351530921037,0.54866453307578,6.38221620659178,0.795875854768068,4.26638335341766,64.46,3.16666666666667,4.22222222222222
"louder",129,10.0112179487179,28.8588519060155,87.8932174506877,0.656907889856793,0.82915619758885,37.8572414698604,0.458333333333333,3.07577498122753,0.61509982054025,6.35941333069142,0.75,6.94808511387922,61.69,2.25,5.22222222222222
"quieter",129,6.65277777777778,29.2739930085847,76.8316715061887,0.701554523979864,0.968245836551854,36.1093667022334,0.541666666666667,3.07577498122753,0.61509982054025,6.35941333069142,0.75,6.94808511387922,61.69,2.25,5.22222222222222
"louder",130,13.0104166666667,24.4003327359231,92.2402918616822,0.683640074106946,0.886405260427918,34.4923673333003,0.694444444444444,2.86220088092947,0.695709690274907,6.29615958009124,1,5.10212172684976,58.92,4.25,3.59259259259259
"quieter",130,12.6631944444444,24.6649548955598,83.9472635836452,0.681816579019785,1,32.9636163064673,0.611111111111111,2.86220088092947,0.695709690274907,6.29615958009124,1,5.10212172684976,58.92,4.25,3.59259259259259
"louder",131,6.91666666666667,26.2905663223716,92.2402918616822,0.830041137206665,1.08012344973464,34.0700373034792,0.361111111111111,3.07577498122753,0.306111333511289,6.37620082593142,0.618118692087014,5.68432735886685,60.77,3.5,3.77777777777778
"quieter",131,6.14930555555556,24.6355966308759,97.2065403659135,0.693270941706183,1,32.760147629815,0.486111111111111,3.07577498122753,0.306111333511289,6.37620082593142,0.618118692087014,5.68432735886685,60.77,3.5,3.77777777777778
"louder",132,11.7326388888889,29.3388689415463,83.9472635836452,0.724868515128581,0.957427107756338,37.6271178805925,0.541666666666667,3.03655426807425,0.455668946048183,6.41168283287924,0.591751709536137,3.6605408712173,69,4.41666666666667,3.92592592592593
"quieter",132,10.21875,29.0306351597373,87.8932174506877,0.704568249917051,0.963624111659432,39.4081209904761,0.583333333333333,3.03655426807425,0.455668946048183,6.41168283287924,0.591751709536137,3.6605408712173,69,4.41666666666667,3.92592592592593
"louder",133,12.7256944444444,37.9532100598375,58.501025074454,0.652883983885777,0.925820099772551,39.9013317956903,0.416666666666667,3.14988295338125,0.319586182560228,6.67076632084587,0.646446609406726,-0.00306986130365239,62.62,2.91666666666667,5.88888888888889
"quieter",133,12.7326388888889,36.500460025725,73.5397725296097,0.604220665995311,0.935414346693485,39.1407715815619,0.375,3.14988295338125,0.319586182560228,6.67076632084587,0.646446609406726,-0.00306986130365239,62.62,2.91666666666667,5.88888888888889
"louder",134,12.0059523809524,27.0066744549617,97.2065403659135,0.807440339009246,0.925820099772551,33.4046167625469,0.597222222222222,2.94443897916644,0.666666666666667,6.19956214021692,0.795875854768068,5.22559484474906,63.54,3.58333333333333,4.74074074074074
"quieter",134,9.90694444444444,26.4095798734268,114.868620918244,0.682805747785444,0.968245836551854,31.7985273474011,0.694444444444444,2.94443897916644,0.666666666666667,6.19956214021692,0.795875854768068,5.22559484474906,63.54,3.58333333333333,4.74074074074074
"louder",135,10.0173611111111,29.7689139085409,76.8316715061887,0.685276421769991,0.82915619758885,36.3631853665215,0.583333333333333,3.18497427319252,0.40682898599826,6.33034649203043,0.566987298107781,6.54718981639834,71.85,4.16666666666667,5.55555555555556
"quieter",135,9.51041666666667,29.3444052188328,80.2844146978996,0.509885979532677,1,34.5452601669173,0.569444444444444,3.18497427319252,0.40682898599826,6.33034649203043,0.566987298107781,6.54718981639834,71.85,4.16666666666667,5.55555555555556
"louder",136,10.5868055555556,27.8789518285064,73.5397725296097,0.655771048307186,0.886405260427918,35.5550149895776,0.458333333333333,3.2188758248682,0.292893218813452,6.606467173957,0.521286446121831,5.61420661803666,65.38,2.41666666666667,4.51851851851852
"quieter",136,10.0833333333333,27.4803937928617,70.3733002685445,0.57625862723915,0.707106781186548,37,0.513888888888889,3.2188758248682,0.292893218813452,6.606467173957,0.521286446121831,5.61420661803666,65.38,2.41666666666667,4.51851851851852
"louder",137,11.5,32.5085787494269,76.8316715061887,0.437769371826148,0.886405260427918,39.4880431973472,0.5,3.11351530921037,0.591751709536137,6.51670616742976,0.646446609406726,5.42298424511942,66.31,3.5,4.92592592592593
"quieter",137,8.13541666666667,30.9830698492572,76.8316715061887,0.422096429150276,0.968245836551854,37.7871462411841,0.527777777777778,3.11351530921037,0.591751709536137,6.51670616742976,0.646446609406726,5.42298424511942,66.31,3.5,4.92592592592593
"louder",138,12.8486111111111,26.0703456315469,58.501025074454,0.430581058555045,0.925820099772551,33.3211993418814,NA,3.07577498122753,0.333333333333334,6.35279618498944,0.677251387816048,4.55376577307356,70,4.75,4.14814814814815
"quieter",138,12.5587301587302,25.817111686127,92.2402918616822,0.454282992972336,0.82915619758885,33.8211737654357,NA,3.07577498122753,0.333333333333334,6.35279618498944,0.677251387816048,4.55376577307356,70,4.75,4.14814814814815
"louder",139,12.0868055555556,30.906310035331,87.8932174506877,0.856539902188006,0.886405260427918,36.5462036332093,0.472222222222222,2.90872089656436,0.490824922782685,6.58523731044488,0.795875854768068,2.13143364628367,70.46,2.58333333333333,4.92592592592593
"quieter",139,9.57638888888889,29.3899207528783,92.2402918616822,0.429419778636065,0.968245836551854,36.8028854976397,0.486111111111111,2.90872089656436,0.490824922782685,6.58523731044488,0.795875854768068,2.13143364628367,70.46,2.58333333333333,4.92592592592593
"louder",140,10.8416666666667,25.5804054474737,114.868620918244,0.634379529934888,0.886405260427918,32.2875797308818,0.611111111111111,3.07577498122753,0.639958850088452,6.29137621971592,0.646446609406726,5.33454333041739,62.62,2.58333333333333,3.33333333333333
"quieter",140,8.37083333333333,24.8177355937241,97.2065403659135,0.583007471830637,0.968245836551854,32.7960202977194,0.638888888888889,3.07577498122753,0.639958850088452,6.29137621971592,0.646446609406726,5.33454333041739,62.62,2.58333333333333,3.33333333333333
"louder",141,11.1511752136752,27.7883641443353,80.2844146978996,0.761014707041097,0.75,34.253953543107,0.5,3.28341434600577,0.40682898599826,6.26962223964328,0.521286446121831,5.5453111557735,66.31,3.83333333333333,3.59259259259259
"quieter",141,10.0397727272727,27.6900916659839,73.5397725296097,0.745339771848007,0.968245836551854,34.3188177243914,0.444444444444444,3.28341434600577,0.40682898599826,6.26962223964328,0.521286446121831,5.5453111557735,66.31,3.83333333333333,3.59259259259259
"louder",142,10.4444444444444,29.9038041058324,NA,0.658975460150079,0.866025403784439,40.3680739613477,0.652777777777778,3.28341434600577,0.666666666666667,6.47671873816837,0.75,6.45790254285115,63.54,3.58333333333333,4.37037037037037
"quieter",142,9.35069444444444,29.8328677803526,NA,0.641249977603722,1,36.0660625736331,0.666666666666667,3.28341434600577,0.666666666666667,6.47671873816837,0.75,6.45790254285115,63.54,3.58333333333333,4.37037037037037
"louder",143,12.0902777777778,22.9492878172887,97.2065403659135,0.79892000776235,0.82915619758885,32.49055806902,0.611111111111111,2.70805020110221,0.61509982054025,6.23298556204808,0.855662432702595,6.24409973368334,62.62,3.91666666666667,4.2962962962963
"quieter",143,8.46875,22.9879195327556,103.308864040621,0.693190103932925,1,31.2684231408347,0.638888888888889,2.70805020110221,0.61509982054025,6.23298556204808,0.855662432702595,6.24409973368334,62.62,3.91666666666667,4.2962962962963
"louder",144,10.1180555555556,23.7065391822594,NA,0.601593093677261,0.901387818865997,32.0826347818482,0.708333333333333,3.18497427319252,0.591751709536137,6.19412311071151,0.795875854768068,5.16050500200027,60.77,3.25,3.74074074074074
"quieter",144,9.82291666666667,23.1699085063833,NA,0.551524554166615,0.935414346693485,31.6182085373462,0.708333333333333,3.18497427319252,0.591751709536137,6.19412311071151,0.795875854768068,5.16050500200027,60.77,3.25,3.74074074074074
"louder",145,13.1097222222222,36.12908538575,58.501025074454,0.775942360633813,0.925820099772551,36.7002600932077,0.388888888888889,2.9531726591352,0.47295372330527,6.38908647775512,0.618118692087014,6.07537831723657,67.23,3.41666666666667,5.18518518518519
"quieter",145,12.5138888888889,34.4864476061706,52.8195885384328,0.710572194935272,0.866025403784439,37.1702646133784,0.416666666666667,2.9531726591352,0.47295372330527,6.38908647775512,0.618118692087014,6.07537831723657,67.23,3.41666666666667,5.18518518518519
"louder",146,13.3993055555556,28.8831535525431,61.3852867529218,0.690532739070262,0.707106781186548,33.590222242537,0.375,2.86220088092947,0.118082896311803,6.41015700423199,0.479583500133467,6.73605814137496,70.92,1.91666666666667,4.55555555555556
"quieter",146,12.9722222222222,29.1804729228297,61.3852867529218,0.691064978708369,0.886405260427918,34.2052627529741,0.347222222222222,2.86220088092947,0.118082896311803,6.41015700423199,0.479583500133467,6.73605814137496,70.92,1.91666666666667,4.55555555555556
"louder",147,13.9097222222222,29.8601156398313,80.2844146978996,0.499148348914999,NA,40.3110131078069,0.430555555555556,3.18497427319252,0.306111333511289,6.38206534067281,0.618118692087014,4.81393854558022,73.69,2.16666666666667,5.40740740740741
"quieter",147,12.3993055555556,28.7783079981425,80.2844146978996,0.61684880710317,NA,37.9782326319453,0.375,3.18497427319252,0.306111333511289,6.38206534067281,0.618118692087014,4.81393854558022,73.69,2.16666666666667,5.40740740740741
"louder",148,10.9965277777778,28.4651217790252,NA,0.732495277627027,0.845154254728517,37.4674633623736,0.388888888888889,2.9531726591352,0.172240865236037,6.56780276641607,0.521286446121831,7.88839689061425,71.85,2.58333333333333,3.59259259259259
"quieter",148,9.23958333333333,29.4085900467759,NA,0.763486512271861,0.901387818865997,36.3510660091283,0.402777777777778,2.9531726591352,0.172240865236037,6.56780276641607,0.521286446121831,7.88839689061425,71.85,2.58333333333333,3.59259259259259
"louder",149,10.4513888888889,27.6915903447992,103.308864040621,0.660982457037881,0.901387818865997,38.1558772372217,0.527777777777778,3.03655426807425,0.509346618537342,6.23297448155276,0.521286446121831,5.30243664404635,65.38,3.08333333333333,4.88888888888889
"quieter",149,9.19097222222222,29.5456008355835,83.9472635836452,0.833821858520505,0.968245836551854,35.9795466588696,0.625,3.03655426807425,0.509346618537342,6.23297448155276,0.521286446121831,5.30243664404635,65.38,3.08333333333333,4.88888888888889
"louder",150,10.0962301587302,30.3516669099166,NA,0.549132214451998,1.04880884817015,39.3337368825142,0.444444444444444,3.14988295338125,0.569668517088065,6.48763491824646,0.646446609406726,5.12579117093425,67,3.66666666666667,4.40740740740741
"quieter",150,8.02123015873016,28.7195743960173,NA,0.588296937290737,0.901387818865997,34.386874572388,0.583333333333333,3.14988295338125,0.569668517088065,6.48763491824646,0.646446609406726,5.12579117093425,67,3.66666666666667,4.40740740740741
"louder",151,12.6180555555556,27.3183393834008,NA,0.617940270195459,NA,36.3871543267676,NA,3.03655426807425,0.639958850088452,6.37398808597374,0.591751709536137,4.94396044041534,60.77,5,3.59259259259259
"quieter",151,8.01527777777778,26.7139731907548,NA,0.553913152812006,NA,35.526238702734,NA,3.03655426807425,0.639958850088452,6.37398808597374,0.591751709536137,4.94396044041534,60.77,5,3.59259259259259
"louder",152,12.5277777777778,24.4620918850768,NA,0.513328472927833,NA,36.9949320853546,0.5,2.86220088092947,0.25464400750007,6.28752234925549,0.370847130394104,5.56803812762664,62.62,3.16666666666667,4.33333333333333
"quieter",152,10.5659722222222,24.1094318863459,NA,0.657653921923538,NA,36.547329821386,0.555555555555556,2.86220088092947,0.25464400750007,6.28752234925549,0.370847130394104,5.56803812762664,62.62,3.16666666666667,4.33333333333333
"louder",153,14.3888888888889,30.0798540396661,92.2402918616822,0.93465823999044,1,31.931101423146,0.5,3.2188758248682,0.639958850088452,6.1133171830219,0.75,7.55619341934139,63.54,2.91666666666667,5.22222222222222
"quieter",153,13.5659722222222,27.9170671339709,97.2065403659135,0.923008851180949,0.901387818865997,30.361833098331,0.527777777777778,3.2188758248682,0.639958850088452,6.1133171830219,0.75,7.55619341934139,63.54,2.91666666666667,5.22222222222222
"louder",154,15.9479166666667,27.2240219001721,80.2844146978996,0.744860536587384,0.866025403784439,34.712720621884,0.347222222222222,2.90872089656436,0.347369993084959,6.35533982212364,0.543564535412362,5.52952480459705,70.92,4.5,4.55555555555556
"quieter",154,13.7083333333333,27.121056840358,83.9472635836452,0.654527458232607,0.935414346693485,32.7625144477828,0.486111111111111,2.90872089656436,0.347369993084959,6.35533982212364,0.543564535412362,5.52952480459705,70.92,4.5,4.55555555555556
"louder",155,11.7777777777778,27.1523479647709,97.2065403659135,0.75009297675792,0.82915619758885,33.08398404062,0.625,3.03655426807425,0.47295372330527,6.23556474367929,0.75,6.10027370054965,63.54,2.66666666666667,5.22222222222222
"quieter",155,9.3125,26.5985480547471,83.9472635836452,0.737740164452354,0.968245836551854,30.9365185794747,0.611111111111111,3.03655426807425,0.47295372330527,6.23556474367929,0.75,6.10027370054965,63.54,2.66666666666667,5.22222222222222
"louder",156,13.7604166666667,26.1587036715847,103.308864040621,0.315223967537792,0.845154254728517,33.755714714135,0.430555555555556,3.11351530921037,0.319586182560228,6.24109296706167,0.618118692087014,4.54173069645858,73.69,4.25,4.03703703703704
"quieter",156,12.225,25.5196566113892,92.2402918616822,0.515989614875106,0.790569415042095,34.0098025084926,0.402777777777778,3.11351530921037,0.319586182560228,6.24109296706167,0.618118692087014,4.54173069645858,73.69,4.25,4.03703703703704
"louder",157,14.375,32.2368607322955,87.8932174506877,0.568397420438301,0.901387818865997,42.2418208482,0.430555555555556,2.90872089656436,0.206507952384128,6.34888920993726,0.591751709536137,4.92018692738068,71.85,4.41666666666667,4.51851851851852
"quieter",157,11.5520833333333,30.2880804293034,103.308864040621,0.574305510639769,0.886405260427918,38.0926502097189,0.458333333333333,2.90872089656436,0.206507952384128,6.34888920993726,0.591751709536137,4.92018692738068,71.85,4.41666666666667,4.51851851851852
"louder",158,13.1006944444444,29.2721840574575,64.3152353978021,0.658130372876429,1.03509833901353,39.7106723690244,0.583333333333333,2.90872089656436,0.509346618537342,6.3503818205067,0.618118692087014,6.67373787785654,63.54,3.5,3.92592592592593
"quieter",158,11.0972222222222,27.9125400153746,70.3733002685445,0.524319205499875,0.968245836551854,39.1620564662617,0.486111111111111,2.90872089656436,0.509346618537342,6.3503818205067,0.618118692087014,6.67373787785654,63.54,3.5,3.92592592592593
"louder",159,13.8715277777778,NA,114.868620918244,0.664629925728478,0.925820099772551,36.9068237100355,0.527777777777778,NA,NA,NA,NA,NA,NA,NA,NA
"quieter",159,11.5694444444444,NA,87.8932174506877,0.612323123719306,0.901387818865997,33.4550159951852,0.597222222222222,NA,NA,NA,NA,NA,NA,NA,NA
"louder",160,15.7347222222222,32.4526321479989,80.2844146978996,0.732644076115868,0.894427190999916,33.7258935750544,0.388888888888889,3.14988295338125,0.727834473024092,6.44045437705497,0.646446609406726,6.98088364554878,65.38,2.5,4.85185185185185
"quieter",160,10.8888888888889,30.3064737793953,97.2065403659135,0.634230788243199,0.925820099772551,34.6067190007952,0.555555555555556,3.14988295338125,0.727834473024092,6.44045437705497,0.646446609406726,6.98088364554878,65.38,2.5,4.85185185185185
"louder",161,18.0228174603175,32.9068226111087,NA,0.602565611560983,NA,NA,0.416666666666667,3.07577498122753,0.509346618537342,6.33076017515822,0.591751709536137,7.3845453848671,63.54,1.83333333333333,5.18518518518519
"quieter",161,15.1631944444444,32.5274812587301,NA,0.611126126652369,NA,NA,0.416666666666667,3.07577498122753,0.509346618537342,6.33076017515822,0.591751709536137,7.3845453848671,63.54,1.83333333333333,5.18518518518519
"louder",162,15.5451388888889,NA,70.3733002685445,0.581397881993756,NA,32.5977550816561,0.680555555555556,3.03655426807425,0.695709690274907,6.25186374106284,0.591751709536137,5.6398712190365,59.85,3.58333333333333,4.11111111111111
"quieter",162,13.8125,NA,76.8316715061887,0.496404767121033,NA,31.4375282396403,0.722222222222222,3.03655426807425,0.695709690274907,6.25186374106284,0.591751709536137,5.6398712190365,59.85,3.58333333333333,4.11111111111111
"louder",163,13.8993055555556,33.7315416399614,73.5397725296097,0.59829663764297,0.948683298050514,38.954246666228,0.416666666666667,3.2188758248682,0.47295372330527,6.37269571877979,0.646446609406726,4.8551388535197,62.62,3.66666666666667,5.51851851851852
"quieter",163,11.1840277777778,31.7858689265314,64.3152353978021,0.495592091436427,1.03509833901353,38.671695075339,0.444444444444444,3.2188758248682,0.47295372330527,6.37269571877979,0.646446609406726,4.8551388535197,62.62,3.66666666666667,5.51851851851852
"louder",164,13.8229166666667,24.6021402752372,114.868620918244,0.62920536818285,0.901387818865997,34.6045845622697,0.666666666666667,3.14988295338125,0.569668517088065,6.24173676581044,0.75,4.84312242063723,65.38,4.83333333333333,3.74074074074074
"quieter",164,12.65625,23.3543825537311,103.308864040621,0.670906892557788,0.968245836551854,33.0009881274986,0.652777777777778,3.14988295338125,0.569668517088065,6.24173676581044,0.75,4.84312242063723,65.38,4.83333333333333,3.74074074074074
"louder",165,13.1319444444444,29.9976469665441,NA,0.664627607256249,0.845154254728517,37.9924804590141,0.638888888888889,3.25166564769119,0.376390435537676,6.3134159421411,0.75,6.62663461544596,61.69,3.58333333333333,5.2962962962963
"quieter",165,9.48958333333333,30.3956592936574,NA,0.530858190107831,0.963624111659432,36.8368345674867,0.611111111111111,3.25166564769119,0.376390435537676,6.3134159421411,0.75,6.62663461544596,61.69,3.58333333333333,5.2962962962963
"louder",166,17.4895833333333,29.5308138309333,80.2844146978996,1.18618598218974,NA,42.5527994465786,NA,2.81341071676004,0.292893218813452,6.47517317447025,0.711324865405188,2.40817934655909,66.31,2.75,4.92592592592593
"quieter",166,14.84375,29.1635279696467,76.8316715061887,1.26328331035529,NA,40.1388216070178,NA,2.81341071676004,0.292893218813452,6.47517317447025,0.711324865405188,2.40817934655909,66.31,2.75,4.92592592592593
"louder",167,12.8277777777778,32.0544045099086,80.2844146978996,0.65347948552282,NA,36.3824711987286,0.513888888888889,2.45673577282131,0.361715261495775,6.13456726340608,0.677251387816048,8.98002547845149,69.08,3.16666666666667,6.40740740740741
"quieter",167,10.0819444444444,30.0763611495806,97.2065403659135,0.51624077410094,NA,34.401570968582,0.527777777777778,2.45673577282131,0.361715261495775,6.13456726340608,0.677251387816048,8.98002547845149,69.08,3.16666666666667,6.40740740740741
"louder",168,13.2097222222222,27.6050101497147,83.9472635836452,0.72720806106058,0.894427190999916,39.2932759955382,0.416666666666667,2.99573227355399,0.242323239056341,6.61878159261427,0.459938275132678,4.09765570571581,70,2.66666666666667,4.14814814814815
"quieter",168,12.4201388888889,26.507307721407,73.5397725296097,0.608570941633314,0.968245836551854,39.1120838365947,0.430555555555556,2.99573227355399,0.242323239056341,6.61878159261427,0.459938275132678,4.09765570571581,70,2.66666666666667,4.14814814814815
"louder",169,13.2604166666667,27.5685097035137,83.9472635836452,0.645355879577105,0.801783725737273,31.7151144542864,0.347222222222222,2.65089178726226,0.376390435537676,6.20406854137778,0.5,5.73729824523947,64.46,2.75,4.88888888888889
"quieter",169,11.8680555555556,28.2984509396079,70.3733002685445,0.601596009615622,0.901387818865997,31.8619555351883,0.430555555555556,2.65089178726226,0.376390435537676,6.20406854137778,0.5,5.73729824523947,64.46,2.75,4.88888888888889
"louder",170,10.4583333333333,30.0735723366284,80.2844146978996,0.784005536964145,0.925820099772551,35.3643061057539,0.513888888888889,2.99573227355399,0.591751709536137,6.4305739515823,0.677251387816048,4.99756608567063,66.31,3.66666666666667,4.66666666666667
"quieter",170,9.64930555555556,30.0853687324039,97.2065403659135,0.839612466644048,0.935414346693485,33.6918318718903,0.541666666666667,2.99573227355399,0.591751709536137,6.4305739515823,0.677251387816048,4.99756608567063,66.31,3.66666666666667,4.66666666666667
"louder",171,11.6145833333333,24.795078511014,92.2402918616822,0.397748995888997,0.935414346693485,35.2323456757875,0.583333333333333,2.59026716544582,0.376390435537676,6.41614731613121,0.646446609406726,5.09859672699729,63.54,4.25,3.62962962962963
"quieter",171,9.31597222222222,25.0834796705113,83.9472635836452,0.352952310320595,0.935414346693485,35.6426710559127,0.569444444444444,2.59026716544582,0.376390435537676,6.41614731613121,0.646446609406726,5.09859672699729,63.54,4.25,3.62962962962963
"louder",172,11.65625,28.5274111481078,103.308864040621,0.712496479398981,0.925820099772551,34.1652845248897,0.611111111111111,3.18497427319252,0.569668517088065,6.37077460225318,0.75,6.36580879527306,64.46,2.66666666666667,3.77777777777778
"quieter",172,8.98958333333333,29.0281994556391,87.8932174506877,0.659585302253635,1,35.5105618091294,0.583333333333333,3.18497427319252,0.569668517088065,6.37077460225318,0.75,6.36580879527306,64.46,2.66666666666667,3.77777777777778
"louder",173,14.0590277777778,NA,87.8932174506877,0.698964110016585,0.75,37.5566239164278,0.305555555555556,2.65089178726226,0.279917700176904,6.26270165544987,0.521286446121831,7.30702800071272,70,3,4.51851851851852
"quieter",173,11.3430555555556,NA,70.3733002685445,0.604801414837952,1,37.5096178142544,0.458333333333333,2.65089178726226,0.279917700176904,6.26270165544987,0.521286446121831,7.30702800071272,70,3,4.51851851851852
"louder",174,14.5625,29.4821585780045,67.3054869676735,0.748348021827432,0.866025403784439,32.2667914942489,0.361111111111111,2.65089178726226,0.47295372330527,6.26686447056811,0.646446609406726,6.10303843124378,61.69,2.5,4.22222222222222
"quieter",174,12.6458333333333,27.6096056216065,73.5397725296097,0.721031335404221,0.866025403784439,34.853187527844,0.430555555555556,2.65089178726226,0.47295372330527,6.26686447056811,0.646446609406726,6.10303843124378,61.69,2.5,4.22222222222222
"louder",175,14.4236111111111,29.5743614832655,73.5397725296097,0.518014357700911,0.886405260427918,38.5579341473877,0.458333333333333,3.2188758248682,0.528595479208969,6.2925524522442,0.646446609406726,6.92106610174766,71.85,2.66666666666667,4.62962962962963
"quieter",175,12.2604166666667,28.4071521299625,83.9472635836452,0.428132773867979,0.968245836551854,39.7201320351392,0.458333333333333,3.2188758248682,0.528595479208969,6.2925524522442,0.646446609406726,6.92106610174766,71.85,2.66666666666667,4.62962962962963
"louder",176,14.1805555555556,27.7325870690451,NA,0.539541043153013,0.801783725737273,33.1414368836005,0.555555555555556,3.34403896782221,0.438916392313218,6.23000971559554,0.711324865405188,7.56600472731616,65.38,3.91666666666667,4.48148148148148
"quieter",176,12.2361111111111,28.4834317165776,NA,0.424334791683497,0.968245836551854,34.084768278095,0.597222222222222,3.34403896782221,0.438916392313218,6.23000971559554,0.711324865405188,7.56600472731616,65.38,3.91666666666667,4.48148148148148
"louder",177,13.0666666666667,30.4533573969142,97.2065403659135,0.597045459592835,0.82915619758885,34.7187836681232,0.611111111111111,0.510825623766011,0.807549910270125,6.35610766069589,1,6.39674834635537,71.85,1.83333333333333,4.55555555555556
"quieter",177,11.4083333333333,29.609473656797,114.868620918244,0.598883359996136,1,33.9952418815962,0.611111111111111,0.510825623766011,0.807549910270125,6.35610766069589,1,6.39674834635537,71.85,1.83333333333333,4.55555555555556
"louder",178,9.80833333333333,NA,80.2844146978996,NA,1,NA,0.375,NA,NA,NA,NA,NA,NA,NA,NA
"quieter",178,9.22916666666667,NA,58.501025074454,NA,1,NA,0.444444444444444,NA,NA,NA,NA,NA,NA,NA,NA
"louder",179,11.9333333333333,37.8580491316968,NA,0.57836670636929,1,36.6985013317983,0.527777777777778,2.99573227355399,0.807549910270125,6.75204385802231,0.566987298107781,4.24825595542751,62.62,3,6.40740740740741
"quieter",179,9.26666666666667,37.308156624586,NA,0.622470621415145,0.901387818865997,34.928498393146,0.611111111111111,2.99573227355399,0.807549910270125,6.75204385802231,0.566987298107781,4.24825595542751,62.62,3,6.40740740740741
"louder",180,10.90625,29.0422707165279,92.2402918616822,0.804919931507669,0.654653670707977,37.386190936324,0.444444444444444,2.99573227355399,0.455668946048183,6.37361881949103,0.479583500133467,5.69663332019278,65.38,4.33333333333333,4.11111111111111
"quieter",180,10.0243055555556,28.7277581949774,92.2402918616822,0.710809430390934,0.901387818865997,35.8862400123254,0.472222222222222,2.99573227355399,0.455668946048183,6.37361881949103,0.479583500133467,5.69663332019278,65.38,4.33333333333333,4.11111111111111
"louder",181,11.7673611111111,26.0352325384916,83.9472635836452,0.570398381411627,0.845154254728517,34.0390642459049,0.5,3.11351530921037,0.569668517088065,6.26283072568649,0.591751709536137,4.92012333258837,67.23,3,3.33333333333333
"quieter",181,9.40972222222222,25.2726795835608,87.8932174506877,0.53771877175208,0.963624111659432,34.0112026362183,0.694444444444444,3.11351530921037,0.569668517088065,6.26283072568649,0.591751709536137,4.92012333258837,67.23,3,3.33333333333333
"louder",182,10.4618055555556,NA,58.501025074454,0.351257481317933,0.948683298050514,43.3767847419038,0.472222222222222,3.14988295338125,0.347369993084959,6.38561155089921,0.5,6.40990433174673,70,2.91666666666667,3.66666666666667
"quieter",182,9.11458333333333,NA,67.3054869676735,0.642767392761794,0.886405260427918,40.7268205614369,0.458333333333333,3.14988295338125,0.347369993084959,6.38561155089921,0.5,6.40990433174673,70,2.91666666666667,3.66666666666667
"louder",183,11.75,29.5127091267474,97.2065403659135,0.696534949387238,1.09544511501033,35.4566034993105,0.5,2.86220088092947,0.61509982054025,6.59097302251165,0.646446609406726,5.18963592707981,64.46,3.75,4.48148148148148
"quieter",183,10.2395833333333,29.3982280750641,92.2402918616822,0.463230347873039,0.968245836551854,35.6079846583399,0.611111111111111,2.86220088092947,0.61509982054025,6.59097302251165,0.646446609406726,5.18963592707981,64.46,3.75,4.48148148148148
"louder",184,12.03125,31.9771553071636,76.8316715061887,0.781231368110128,1.14017542509914,38.9503229713756,0.430555555555556,3.40119738166216,0.438916392313218,6.52787931301156,0.566987298107781,6.49746920781952,68.15,4.16666666666667,3.96296296296296
"quieter",184,9.57291666666667,32.6274109485488,83.9472635836452,0.71339477049072,0.886405260427918,38.5905320858195,0.486111111111111,3.40119738166216,0.438916392313218,6.52787931301156,0.566987298107781,6.49746920781952,68.15,4.16666666666667,3.96296296296296
"louder",185,13.3333333333333,29.0362856156386,97.2065403659135,0.817597901949619,0.886405260427918,38.586056042698,0.458333333333333,3.2188758248682,0.455668946048183,6.32838311268104,0.618118692087014,5.68793934275498,64.46,2.41666666666667,4.59259259259259
"quieter",185,12.5416666666667,28.2549227452609,92.2402918616822,0.79761628055963,0.901387818865997,35.9601387503909,0.541666666666667,3.2188758248682,0.455668946048183,6.32838311268104,0.618118692087014,5.68793934275498,64.46,2.41666666666667,4.59259259259259
"louder",186,6.64583333333333,26.6860324869942,97.2065403659135,0.576758408549474,0.935414346693485,33.5229132726515,0.625,3.11351530921037,0.347369993084959,6.31781049754717,0.795875854768068,4.32100720850103,64.46,4,4.96296296296296
"quieter",186,6.10416666666667,27.4664248562135,87.8932174506877,0.707694791299369,0.968245836551854,31.4553947752228,0.513888888888889,3.11351530921037,0.347369993084959,6.31781049754717,0.795875854768068,4.32100720850103,64.46,4,4.96296296296296
"louder",187,11.1944444444444,26.2058138749985,64.3152353978021,0.58922283152203,0.957427107756338,37.1644335615548,0.527777777777778,2.90872089656436,0.569668517088065,6.23701475822991,0.646446609406726,5.22772450137366,69.08,3.91666666666667,4.25925925925926
"quieter",187,9.84375,25.8107375864635,87.8932174506877,0.545735085387487,1.0690449676497,37.2736411465841,0.486111111111111,2.90872089656436,0.569668517088065,6.23701475822991,0.646446609406726,5.22772450137366,69.08,3.91666666666667,4.25925925925926
"louder",188,15.4236111111111,31.0577746442603,76.8316715061887,0.750683848037288,0.755928946018454,35.3125241093632,0.458333333333333,2.90872089656436,0.54866453307578,6.45273877954465,0.711324865405188,6.38137080326754,70.92,2.58333333333333,5.59259259259259
"quieter",188,14.75,30.6503798203632,67.3054869676735,0.614143114758023,0.963624111659432,37.1183139537511,0.486111111111111,2.90872089656436,0.54866453307578,6.45273877954465,0.711324865405188,6.38137080326754,70.92,2.58333333333333,5.59259259259259
"louder",189,16.15,23.9910986729241,NA,NA,NA,NA,0.555555555555556,2.9531726591352,0.292893218813452,7.26215554477776,0.292893218813452,3.62410745593608,68.15,2.41666666666667,4.85185185185185
"quieter",189,14.8833333333333,24.3060384504476,NA,NA,NA,NA,0.569444444444444,2.9531726591352,0.292893218813452,7.26215554477776,0.292893218813452,3.62410745593608,68.15,2.41666666666667,4.85185185185185
"louder",190,16.2638888888889,24.9850975991853,97.2065403659135,0.80695218416091,1,32.9734741875951,0.555555555555556,2.38262780066758,0.54866453307578,6.2823873305209,0.795875854768068,7.52578004311059,67.23,1.66666666666667,6.22222222222222
"quieter",190,12.8923611111111,25.5100150835945,103.308864040621,0.757283190913757,0.866025403784439,32.3352969457747,0.638888888888889,2.38262780066758,0.54866453307578,6.2823873305209,0.795875854768068,7.52578004311059,67.23,1.66666666666667,6.22222222222222
"louder",191,12.4826388888889,27.0945939492843,NA,0.751022806707728,0.925820099772551,35.728739932201,0.486111111111111,3.11351530921037,0.490824922782685,6.26765037790716,0.855662432702595,5.54701241093725,59.85,4.5,4.96296296296296
"quieter",191,9.44097222222222,27.8847058112833,NA,0.716296047495928,1.03509833901353,32.5102275233044,0.513888888888889,3.11351530921037,0.490824922782685,6.26765037790716,0.855662432702595,5.54701241093725,59.85,4.5,4.96296296296296
"louder",192,11.1909722222222,28.4270430082615,114.868620918244,0.912850304696932,0.755928946018454,37.3609132361327,0.513888888888889,3.11351530921037,0.569668517088065,6.28764331492815,0.795875854768068,5.96737058979622,67.23,2.75,4.92592592592593
"quieter",192,9.82638888888889,27.9385972695714,114.868620918244,0.899834035882084,0.901387818865997,36.6484005538836,0.694444444444444,3.11351530921037,0.569668517088065,6.28764331492815,0.795875854768068,5.96737058979622,67.23,2.75,4.92592592592593
"louder",193,9.63333333333333,25.6253740229178,114.868620918244,0.642143099651495,0.925820099772551,40.038407486738,0.319444444444444,3.31418600467253,0.54866453307578,6.64926948352064,0.677251387816048,4.69027718047742,66.31,3.33333333333333,3.2962962962963
"quieter",193,7.93333333333333,26.3411956041974,97.2065403659135,0.470166725048735,0.935414346693485,38.3149090833388,0.430555555555556,3.31418600467253,0.54866453307578,6.64926948352064,0.677251387816048,4.69027718047742,66.31,3.33333333333333,3.2962962962963
"louder",194,13.0625,31.3553285185473,NA,NA,NA,37.0503674709136,0.444444444444444,2.99573227355399,0.376390435537676,6.33764648719999,0.543564535412362,5.48916915975829,62.62,4,4.85185185185185
"quieter",194,12.3819444444444,28.8910733211326,NA,NA,NA,36.5950057308978,0.583333333333333,2.99573227355399,0.376390435537676,6.33764648719999,0.543564535412362,5.48916915975829,62.62,4,4.85185185185185
"louder",195,12.6069444444444,26.9262149703886,73.5397725296097,0.601150858510003,0.901387818865997,36.1277195683885,0.430555555555556,3.28341434600577,0.319586182560228,6.40156703408228,0.566987298107781,5.30919174135189,71.85,3,3.96296296296296
"quieter",195,11.2708333333333,28.0348988861304,80.2844146978996,0.442050719707221,0.935414346693485,34.1301166840206,0.486111111111111,3.28341434600577,0.319586182560228,6.40156703408228,0.566987298107781,5.30919174135189,71.85,3,3.96296296296296
"louder",196,11.3923611111111,28.0262602636851,NA,0.57846025395996,NA,36.1943284474889,0.638888888888889,2.9531726591352,0.47295372330527,6.41416621347374,0.543564535412362,7.59080612710439,60.77,2.91666666666667,4.62962962962963
"quieter",196,9.37152777777778,26.429628308496,NA,0.483259621684093,NA,33.7782685845712,0.722222222222222,2.9531726591352,0.47295372330527,6.41416621347374,0.543564535412362,7.59080612710439,60.77,2.91666666666667,4.62962962962963
"louder",197,10.6111111111111,30.215491119862,64.3152353978021,0.515282326726397,0.901387818865997,37.6769160096736,NA,2.76211742237249,0.438916392313218,6.64846360884595,0.677251387816048,5.32916756426832,72.77,3.08333333333333,4.74074074074074
"quieter",197,9.05555555555556,30.1127096239923,73.5397725296097,0.520243535480916,0.968245836551854,34.4849863812397,NA,2.76211742237249,0.438916392313218,6.64846360884595,0.677251387816048,5.32916756426832,72.77,3.08333333333333,4.74074074074074
"louder",198,8.91666666666667,25.4329895317428,76.8316715061887,0.809737874494501,0.866025403784439,35.0637175113291,0.527777777777778,3.28341434600577,0.61509982054025,6.41092221030227,0.646446609406726,3.44350262497554,65.38,4,4.11111111111111
"quieter",198,6.81944444444444,25.9378437640918,76.8316715061887,0.758811886284709,0.886405260427918,34.7920463107085,0.597222222222222,3.28341434600577,0.61509982054025,6.41092221030227,0.646446609406726,3.44350262497554,65.38,4,4.11111111111111
"louder",199,12.2986111111111,NA,NA,0.500599580720049,0.82915619758885,37.6748700506496,NA,2.70805020110221,0.528595479208969,6.23519473203058,0.677251387816048,4.14670014939886,64.46,3.91666666666667,4.55555555555556
"quieter",199,11.9083333333333,NA,NA,0.532885320062988,1,34.8981907973785,NA,2.70805020110221,0.528595479208969,6.23519473203058,0.677251387816048,4.14670014939886,64.46,3.91666666666667,4.55555555555556
"louder",200,13.0833333333333,30.6448977171985,70.3733002685445,0.625359700458739,0.935414346693485,35.2278299076171,0.569444444444444,3.18497427319252,0.490824922782685,6.43889385431518,0.795875854768068,4.67253442469176,64.46,4,4.22222222222222
"quieter",200,10.1597222222222,31.3307561203008,61.3852867529218,0.736125668600127,0.968245836551854,34.8440972204922,0.555555555555556,3.18497427319252,0.490824922782685,6.43889385431518,0.795875854768068,4.67253442469176,64.46,4,4.22222222222222
"louder",201,12.0597222222222,30.8968357252215,103.308864040621,0.73975438954142,1.04083299973307,34.5757539125424,0.416666666666667,2.86220088092947,0.438916392313218,6.45859415234126,0.855662432702595,7.23697095953899,62.62,3.33333333333333,4.48148148148148
"quieter",201,11.4756944444444,29.6473592262601,92.2402918616822,0.775617430964979,1.0690449676497,34.5668688349499,0.513888888888889,2.86220088092947,0.438916392313218,6.45859415234126,0.855662432702595,7.23697095953899,62.62,3.33333333333333,4.48148148148148
"louder",202,12.4340277777778,30.1639199867245,NA,0.535890608621996,NA,33.6303434416005,NA,3.14988295338125,0.347369993084959,6.50127434897912,0.521286446121831,4.54583940795768,66.31,3.41666666666667,3.62962962962963
"quieter",202,9.26041666666667,26.8476810879074,NA,0.518312247951432,NA,31.336060983294,NA,3.14988295338125,0.347369993084959,6.50127434897912,0.521286446121831,4.54583940795768,66.31,3.41666666666667,3.62962962962963
"louder",204,10.4444444444444,32.193381200232,NA,0.682893367527217,0.707106781186548,39.146964741661,0.361111111111111,3.28341434600577,0.230199641080499,6.49549050974209,0.591751709536137,4.9087496645196,72.77,2.83333333333333,4.85185185185185
"quieter",204,10.7402777777778,29.6634058573661,NA,0.692003009957181,0.866025403784439,39.4081209904761,0.458333333333333,3.28341434600577,0.230199641080499,6.49549050974209,0.591751709536137,4.9087496645196,72.77,2.83333333333333,4.85185185185185
"louder",205,10.3784722222222,30.0487258619384,64.3152353978021,0.894468664822087,NA,37.4144638510718,0.5,2.81341071676004,0.25464400750007,6.51980090757225,0.543564535412362,3.98810604995346,68.15,3.83333333333333,3.44444444444444
"quieter",205,9.33512544802867,29.7508594222694,80.2844146978996,0.796262540358347,NA,36.8866507018461,0.444444444444444,2.81341071676004,0.25464400750007,6.51980090757225,0.543564535412362,3.98810604995346,68.15,3.83333333333333,3.44444444444444
"louder",206,15.375,29.002028326633,61.3852867529218,0.473991926697184,NA,NA,NA,2.81341071676004,0.194923514100587,6.42331831820193,0.459938275132678,6.42951481103497,69.08,4.41666666666667,3.88888888888889
"quieter",206,15.3,28.5289960296158,87.8932174506877,0.334083446930977,NA,NA,NA,2.81341071676004,0.194923514100587,6.42331831820193,0.459938275132678,6.42951481103497,69.08,4.41666666666667,3.88888888888889
"louder",207,13.5375,28.4286516615565,97.2065403659135,0.842869758712741,0.901387818865997,33.4931019582821,0.527777777777778,3.18497427319252,0.47295372330527,6.25683776150581,0.75,5.28758109011555,72.77,4.58333333333333,5.62962962962963
"quieter",207,9.87916666666667,27.2838443637495,103.308864040621,0.594492695270615,0.935414346693485,33.5857112474933,0.486111111111111,3.18497427319252,0.47295372330527,6.25683776150581,0.75,5.28758109011555,72.77,4.58333333333333,5.62962962962963
"louder",208,12.1736111111111,30.1006064993366,64.3152353978021,0.67401197364779,0.866025403784439,35.3223253292683,0.458333333333333,3.31418600467253,0.54866453307578,6.52487848397811,0.459938275132678,7.67267748953181,70.92,3.16666666666667,4.59259259259259
"quieter",208,10.4722222222222,30.1789534405889,103.308864040621,0.663134108838969,0.968245836551854,37.2062856558901,0.555555555555556,3.31418600467253,0.54866453307578,6.52487848397811,0.459938275132678,7.67267748953181,70.92,3.16666666666667,4.59259259259259
"louder",209,10.2395833333333,31.9760590822318,87.8932174506877,0.507450376085728,1.04083299973307,41.9159560122521,0.347222222222222,2.99573227355399,0.455668946048183,6.76548159897479,0.566987298107781,4.97950817523129,61.69,2,4.33333333333333
"quieter",209,8.84375,29.8064343625964,80.2844146978996,0.381629522893011,1.04083299973307,40.0624512480203,0.319444444444444,2.99573227355399,0.455668946048183,6.76548159897479,0.566987298107781,4.97950817523129,61.69,2,4.33333333333333
"louder",210,12.1180555555556,30.5192861854319,114.868620918244,0.627738101084398,0.901387818865997,34.6970078384459,0.777777777777778,3.2188758248682,0.807549910270125,6.58043893708408,0.795875854768068,5.59129931134758,58.92,3.75,3.7037037037037
"quieter",210,11.1006944444444,31.6129161987349,97.2065403659135,0.548534476146508,1.0690449676497,34.2450132170008,0.736111111111111,3.2188758248682,0.807549910270125,6.58043893708408,0.795875854768068,5.59129931134758,58.92,3.75,3.7037037037037
"louder",211,16.0798611111111,33.3631533281853,67.3054869676735,0.495847268641329,0.866025403784439,34.6856764939961,0.347222222222222,3.25166564769119,0.306111333511289,6.56874297701935,0.566987298107781,5.11227502085753,65.38,3.66666666666667,4.88888888888889
"quieter",211,14.1527777777778,32.1190620401883,58.501025074454,0.455544594676822,0.963624111659432,35.4979160066662,0.375,3.25166564769119,0.306111333511289,6.56874297701935,0.566987298107781,5.11227502085753,65.38,3.66666666666667,4.88888888888889
"louder",212,16.7673611111111,NA,87.8932174506877,NA,0.845154254728517,NA,NA,3.18497427319252,0.40682898599826,6.26288448697182,0.521286446121831,4.00592622729599,73.69,3.66666666666667,6
"quieter",212,9.84027777777778,NA,92.2402918616822,NA,0.82915619758885,NA,NA,3.18497427319252,0.40682898599826,6.26288448697182,0.521286446121831,4.00592622729599,73.69,3.66666666666667,6
